transect,distance_from_edge,depth,recorder,file_path,recording_name,comments
downstream_00_m,0.5,25,ZOOM,data/20230817/ZOOM,ZOOM0094,
downstream_00_m,1,25,ZOOM,data/20230817/ZOOM,ZOOM0095,
downstream_00_m,2,25,ZOOM,data/20230817/ZOOM,ZOOM0096,
downstream_00_m,4,25,ZOOM,data/20230817/ZOOM,ZOOM0097,
downstream_00_m,5,25,ZOOM,data/20230817/ZOOM,ZOOM0098,
downstream_00_m,0.5,50,ZOOM,data/20230817/ZOOM,ZOOM0099,
downstream_00_m,1,50,ZOOM,data/20230817/ZOOM,ZOOM0101,
downstream_00_m,2,50,ZOOM,data/20230817/ZOOM,ZOOM0102,
downstream_00_m,4,50,ZOOM,data/20230817/ZOOM,ZOOM0103,
downstream_00_m,5,50,ZOOM,data/20230817/ZOOM,ZOOM0104,
downstream_15_m,0.5,25,ZOOM,data/20230817/ZOOM,ZOOM0105,biotic noise
downstream_15_m,1,25,ZOOM,data/20230817/ZOOM,ZOOM0106,biotic noise
downstream_15_m,2,25,ZOOM,data/20230817/ZOOM,ZOOM0107,
downstream_15_m,4,25,ZOOM,data/20230817/ZOOM,ZOOM0108,
downstream_15_m,5,25,ZOOM,data/20230817/ZOOM,ZOOM0109,
downstream_15_m,0.5,50,ZOOM,data/20230817/ZOOM,ZOOM0110,biotic noise
downstream_15_m,1,50,ZOOM,data/20230817/ZOOM,ZOOM0111,biotic noise
downstream_15_m,2,50,ZOOM,data/20230817/ZOOM,ZOOM0113,
downstream_15_m,4,50,ZOOM,data/20230817/ZOOM,ZOOM0114,
downstream_15_m,5,50,ZOOM,data/20230817/ZOOM,ZOOM0115,
downstream_30_m,0.5,25,ZOOM,data/20230817/ZOOM,ZOOM0116,
downstream_30_m,1,25,ZOOM,data/20230817/ZOOM,ZOOM0117,
downstream_30_m,2,25,ZOOM,data/20230817/ZOOM,ZOOM0119,
downstream_30_m,4,25,ZOOM,data/20230817/ZOOM,ZOOM0120,
downstream_30_m,5,25,ZOOM,data/20230817/ZOOM,ZOOM0121,
downstream_30_m,0.5,50,ZOOM,data/20230817/ZOOM,ZOOM0122,
downstream_30_m,1,50,ZOOM,data/20230817/ZOOM,ZOOM0123,
downstream_30_m,2,50,ZOOM,data/20230817/ZOOM,ZOOM0124,
downstream_30_m,4,50,ZOOM,data/20230817/ZOOM,ZOOM0126,
downstream_30_m,5,50,ZOOM,data/20230817/ZOOM,ZOOM0127,
downstream_45_m,5,50,ZOOM,data/20230817/ZOOM,ZOOM0128,Last half has too much talking
downstream_45_m,5,25,ZOOM,data/20230817/ZOOM,ZOOM0129,
downstream_60_m,5,25,ZOOM,data/20230817/ZOOM,ZOOM0130,
downstream_60_m,5,50,ZOOM,data/20230817/ZOOM,ZOOM0132,
downstream_75_m,5,50,ZOOM,data/20230817/ZOOM,ZOOM0134,
downstream_75_m,5,25,ZOOM,data/20230817/ZOOM,ZOOM0135,
downstream_90_m,5,25,ZOOM,data/20230817/ZOOM,ZOOM0137,
downstream_90_m,5,50,ZOOM,data/20230817/ZOOM,ZOOM0138,
downstream_00_m,0.5,25,TASCAM,data/20230817/TASCAM,TASCAM_0106.wav,
downstream_00_m,1,25,TASCAM,data/20230817/TASCAM,TASCAM_0107.wav,
downstream_00_m,2,25,TASCAM,data/20230817/TASCAM,TASCAM_0108.wav,
downstream_00_m,4,25,TASCAM,data/20230817/TASCAM,TASCAM_0109.wav,
downstream_00_m,5,25,TASCAM,data/20230817/TASCAM,TASCAM_0110.wav,
downstream_00_m,0.5,50,TASCAM,data/20230817/TASCAM,TASCAM_0111.wav,
downstream_00_m,1,50,TASCAM,data/20230817/TASCAM,TASCAM_0113.wav,
downstream_00_m,2,50,TASCAM,data/20230817/TASCAM,TASCAM_0114.wav,
downstream_00_m,4,50,TASCAM,data/20230817/TASCAM,TASCAM_0115.wav,
downstream_00_m,5,50,TASCAM,data/20230817/TASCAM,TASCAM_0116.wav,
downstream_15_m,0.5,25,TASCAM,data/20230817/TASCAM,TASCAM_0117.wav,biotic noise
downstream_15_m,1,25,TASCAM,data/20230817/TASCAM,TASCAM_0118.wav,biotic noise
downstream_15_m,2,25,TASCAM,data/20230817/TASCAM,TASCAM_0119.wav,
downstream_15_m,4,25,TASCAM,data/20230817/TASCAM,TASCAM_0120.wav,
downstream_15_m,5,25,TASCAM,data/20230817/TASCAM,TASCAM_0121.wav,
downstream_15_m,0.5,50,TASCAM,data/20230817/TASCAM,TASCAM_0122.wav,biotic noise
downstream_15_m,1,50,TASCAM,data/20230817/TASCAM,TASCAM_0123.wav,biotic noise
downstream_15_m,2,50,TASCAM,data/20230817/TASCAM,TASCAM_0125.wav,
downstream_15_m,4,50,TASCAM,data/20230817/TASCAM,TASCAM_0126.wav,
downstream_15_m,5,50,TASCAM,data/20230817/TASCAM,TASCAM_0127.wav,
downstream_30_m,0.5,25,TASCAM,data/20230817/TASCAM,TASCAM_0128.wav,
downstream_30_m,1,25,TASCAM,data/20230817/TASCAM,TASCAM_0129.wav,
downstream_30_m,2,25,TASCAM,data/20230817/TASCAM,TASCAM_0131.wav,
downstream_30_m,4,25,TASCAM,data/20230817/TASCAM,TASCAM_0132.wav,
downstream_30_m,5,25,TASCAM,data/20230817/TASCAM,TASCAM_0133.wav,
downstream_30_m,0.5,50,TASCAM,data/20230817/TASCAM,TASCAM_0134.wav,
downstream_30_m,1,50,TASCAM,data/20230817/TASCAM,TASCAM_0135.wav,
downstream_30_m,2,50,TASCAM,data/20230817/TASCAM,TASCAM_0136.wav,
downstream_30_m,4,50,TASCAM,data/20230817/TASCAM,TASCAM_0138.wav,
downstream_30_m,5,50,TASCAM,data/20230817/TASCAM,TASCAM_0139.wav,Last half has too much talking
downstream_45_m,5,50,TASCAM,data/20230817/TASCAM,TASCAM_0140.wav,
downstream_45_m,5,25,TASCAM,data/20230817/TASCAM,TASCAM_0141.wav,
downstream_60_m,5,25,TASCAM,data/20230817/TASCAM,TASCAM_0142.wav,
downstream_60_m,5,50,TASCAM,data/20230817/TASCAM,TASCAM_0144.wav,
downstream_75_m,5,50,TASCAM,data/20230817/TASCAM,TASCAM_0145.wav,
downstream_75_m,5,25,TASCAM,data/20230817/TASCAM,TASCAM_0146.wav,
downstream_90_m,5,25,TASCAM,data/20230817/TASCAM,TASCAM_0148.wav,
downstream_90_m,5,50,TASCAM,data/20230817/TASCAM,TASCAM_0149.wav,
